EESchema Schematic File Version 4
LIBS:ampeln-cache
EELAYER 26 0
EELAYER END
$Descr A4 11693 8268
encoding utf-8
Sheet 1 1
Title ""
Date "jeu. 02 avril 2015"
Rev ""
Comp ""
Comment1 ""
Comment2 ""
Comment3 ""
Comment4 ""
$EndDescr
Text Label 8700 1100 0    60   ~ 0
1(Tx)
Text Label 8700 1200 0    60   ~ 0
0(Rx)
Text Label 8700 1300 0    60   ~ 0
Reset
Text Label 8700 1500 0    60   ~ 0
2
Text Label 8700 1600 0    60   ~ 0
3(**)
Text Label 8700 1700 0    60   ~ 0
4
Text Label 8700 1800 0    60   ~ 0
5(**)
Text Label 8700 1900 0    60   ~ 0
6(**)
Text Label 8700 2000 0    60   ~ 0
7
Text Label 8700 2100 0    60   ~ 0
8
Text Label 8700 2200 0    60   ~ 0
9(**)
Text Label 8700 2300 0    60   ~ 0
10(**/SS)
Text Label 8700 2400 0    60   ~ 0
11(**/MOSI)
Text Label 8700 2500 0    60   ~ 0
12(MISO)
Text Label 10550 2500 0    60   ~ 0
13(SCK)
Text Label 10550 2200 0    60   ~ 0
A0
Text Label 10550 2100 0    60   ~ 0
A1
Text Label 10550 2000 0    60   ~ 0
A2
Text Label 10550 1900 0    60   ~ 0
A3
Text Label 10550 1800 0    60   ~ 0
A4
Text Label 10550 1700 0    60   ~ 0
A5
Text Label 10550 1600 0    60   ~ 0
A6
Text Label 10550 1500 0    60   ~ 0
A7
Text Label 10550 2300 0    60   ~ 0
AREF
Text Label 10550 1300 0    60   ~ 0
Reset
Text Notes 10800 1000 0    60   ~ 0
Holes
Text Notes 8500 575  0    60   ~ 0
Shield for Arduino Nano
Text Label 10250 950  1    60   ~ 0
Vin
Wire Notes Line
	8475 650  9675 650 
Wire Notes Line
	9675 650  9675 475 
$Comp
L Connector_Generic:Conn_01x01 P3
U 1 1 56D73ADD
P 10800 650
F 0 "P3" V 10900 650 50  0000 C CNN
F 1 "CONN_01X01" V 10900 650 50  0001 C CNN
F 2 "Socket_Arduino_Nano:1pin_Nano" H 10800 650 50  0001 C CNN
F 3 "" H 10800 650 50  0000 C CNN
	1    10800 650 
	0    -1   -1   0   
$EndComp
NoConn ~ 10800 850 
$Comp
L Connector_Generic:Conn_01x01 P4
U 1 1 56D73D86
P 10900 650
F 0 "P4" V 11000 650 50  0000 C CNN
F 1 "CONN_01X01" V 11000 650 50  0001 C CNN
F 2 "Socket_Arduino_Nano:1pin_Nano" H 10900 650 50  0001 C CNN
F 3 "" H 10900 650 50  0000 C CNN
	1    10900 650 
	0    -1   -1   0   
$EndComp
$Comp
L Connector_Generic:Conn_01x01 P5
U 1 1 56D73DAE
P 11000 650
F 0 "P5" V 11100 650 50  0000 C CNN
F 1 "CONN_01X01" V 11100 650 50  0001 C CNN
F 2 "Socket_Arduino_Nano:1pin_Nano" H 11000 650 50  0001 C CNN
F 3 "" H 11000 650 50  0000 C CNN
	1    11000 650 
	0    -1   -1   0   
$EndComp
$Comp
L Connector_Generic:Conn_01x01 P6
U 1 1 56D73DD9
P 11100 650
F 0 "P6" V 11200 650 50  0000 C CNN
F 1 "CONN_01X01" V 11200 650 50  0001 C CNN
F 2 "Socket_Arduino_Nano:1pin_Nano" H 11100 650 50  0001 C CNN
F 3 "" H 11100 650 50  0000 C CNN
	1    11100 650 
	0    -1   -1   0   
$EndComp
NoConn ~ 10900 850 
NoConn ~ 11000 850 
NoConn ~ 11100 850 
$Comp
L Connector_Generic:Conn_01x15 P1
U 1 1 56D73FAC
P 9550 1800
F 0 "P1" H 9550 2600 50  0000 C CNN
F 1 "Digital" V 9650 1800 50  0000 C CNN
F 2 "Socket_Arduino_Nano:Socket_Strip_Arduino_1x15" H 9550 1800 50  0001 C CNN
F 3 "" H 9550 1800 50  0000 C CNN
	1    9550 1800
	1    0    0    -1  
$EndComp
$Comp
L Connector_Generic:Conn_01x15 P2
U 1 1 56D740C7
P 9950 1800
F 0 "P2" H 9950 2600 50  0000 C CNN
F 1 "Analog" V 10050 1800 50  0000 C CNN
F 2 "Socket_Arduino_Nano:Socket_Strip_Arduino_1x15" H 9950 1800 50  0001 C CNN
F 3 "" H 9950 1800 50  0000 C CNN
	1    9950 1800
	-1   0    0    -1  
$EndComp
$Comp
L power:GND #PWR01
U 1 1 56D7422C
P 9250 2600
F 0 "#PWR01" H 9250 2350 50  0001 C CNN
F 1 "GND" H 9250 2450 50  0000 C CNN
F 2 "" H 9250 2600 50  0000 C CNN
F 3 "" H 9250 2600 50  0000 C CNN
	1    9250 2600
	1    0    0    -1  
$EndComp
Wire Wire Line
	9350 1400 9250 1400
Wire Wire Line
	9250 1400 9250 2600
Wire Wire Line
	9350 1100 8700 1100
Wire Wire Line
	8700 1200 9350 1200
Wire Wire Line
	9350 1300 8700 1300
Wire Wire Line
	8700 1500 9350 1500
Wire Wire Line
	9350 1600 8700 1600
Wire Wire Line
	8700 1700 9350 1700
Wire Wire Line
	9350 1800 8700 1800
Wire Wire Line
	8700 1900 9350 1900
Wire Wire Line
	9350 2000 8700 2000
Wire Wire Line
	8700 2100 9350 2100
Wire Wire Line
	9350 2200 8700 2200
Wire Wire Line
	8700 2300 9350 2300
Wire Wire Line
	9350 2400 8700 2400
Wire Wire Line
	8700 2500 9350 2500
$Comp
L power:GND #PWR02
U 1 1 56D746ED
P 10250 2600
F 0 "#PWR02" H 10250 2350 50  0001 C CNN
F 1 "GND" H 10250 2450 50  0000 C CNN
F 2 "" H 10250 2600 50  0000 C CNN
F 3 "" H 10250 2600 50  0000 C CNN
	1    10250 2600
	1    0    0    -1  
$EndComp
Wire Wire Line
	10250 2600 10250 1200
Wire Wire Line
	10250 1200 10150 1200
Wire Wire Line
	10150 1100 10250 1100
Wire Wire Line
	10250 1100 10250 950 
$Comp
L power:+5V #PWR03
U 1 1 56D747E8
P 10350 950
F 0 "#PWR03" H 10350 800 50  0001 C CNN
F 1 "+5V" V 10350 1150 28  0000 C CNN
F 2 "" H 10350 950 50  0000 C CNN
F 3 "" H 10350 950 50  0000 C CNN
	1    10350 950 
	1    0    0    -1  
$EndComp
Wire Wire Line
	10350 950  10350 1400
Wire Wire Line
	10350 1400 10150 1400
$Comp
L power:+3V3 #PWR04
U 1 1 56D74854
P 10450 950
F 0 "#PWR04" H 10450 800 50  0001 C CNN
F 1 "+3.3V" V 10450 1150 28  0000 C CNN
F 2 "" H 10450 950 50  0000 C CNN
F 3 "" H 10450 950 50  0000 C CNN
	1    10450 950 
	1    0    0    -1  
$EndComp
Wire Wire Line
	10450 950  10450 2400
Wire Wire Line
	10450 2400 10150 2400
Wire Wire Line
	10550 1300 10150 1300
Wire Wire Line
	10150 1500 10550 1500
Wire Wire Line
	10550 1600 10150 1600
Wire Wire Line
	10550 1700 10150 1700
Wire Wire Line
	10150 1800 10550 1800
Wire Wire Line
	10550 1900 10150 1900
Wire Wire Line
	10550 2000 10150 2000
Wire Wire Line
	10150 2100 10550 2100
Wire Wire Line
	10550 2200 10150 2200
Wire Wire Line
	10550 2300 10150 2300
Wire Wire Line
	10150 2500 10550 2500
Wire Notes Line
	11200 1050 10650 1050
Wire Notes Line
	10650 1050 10650 500 
Wire Notes Line
	11200 2850 8450 2850
Wire Notes Line
	8450 2850 8450 500 
Text Notes 9650 1100 0    60   ~ 0
1
$Comp
L Device:Lamp LA1
U 1 1 5BF742BC
P 2800 3850
F 0 "LA1" H 2928 3896 50  0000 L CNN
F 1 "Lamp" H 2928 3805 50  0000 L CNN
F 2 "" V 2800 3950 50  0001 C CNN
F 3 "~" V 2800 3950 50  0001 C CNN
	1    2800 3850
	1    0    0    -1  
$EndComp
$Comp
L Diode:1N4148 D1
U 1 1 5BF85062
P 2000 3250
F 0 "D1" V 1950 2950 50  0000 L CNN
F 1 "1N4148" V 2050 2900 50  0000 L CNN
F 2 "Diode_THT:D_DO-35_SOD27_P7.62mm_Horizontal" H 2000 3075 50  0001 C CNN
F 3 "http://www.nxp.com/documents/data_sheet/1N4148_1N4448.pdf" H 2000 3250 50  0001 C CNN
	1    2000 3250
	0    1    1    0   
$EndComp
$Comp
L Transistor_BJT:2N3904 Q1
U 1 1 5BF863A8
P 2300 2500
F 0 "Q1" H 2491 2546 50  0000 L CNN
F 1 "2N3904" H 2491 2455 50  0000 L CNN
F 2 "Package_TO_SOT_THT:TO-92_Inline" H 2500 2425 50  0001 L CIN
F 3 "https://www.fairchildsemi.com/datasheets/2N/2N3904.pdf" H 2300 2500 50  0001 L CNN
	1    2300 2500
	1    0    0    -1  
$EndComp
$Comp
L Relay:FINDER-40.31 K1
U 1 1 5BF8771A
P 2600 3250
F 0 "K1" H 3030 3296 50  0000 L CNN
F 1 "FINDER-40.31" H 3030 3205 50  0000 L CNN
F 2 "Relay_THT:Relay_SPDT_Finder_40.31" H 3740 3210 50  0001 C CNN
F 3 "http://gfinder.findernet.com/assets/Series/353/S40EN.pdf" H 2600 3250 50  0001 C CNN
	1    2600 3250
	1    0    0    -1  
$EndComp
$Comp
L Device:R R1
U 1 1 5BF94CA4
P 1700 2500
F 0 "R1" V 1493 2500 50  0000 C CNN
F 1 "470" V 1584 2500 50  0000 C CNN
F 2 "" V 1630 2500 50  0001 C CNN
F 3 "~" H 1700 2500 50  0001 C CNN
	1    1700 2500
	0    1    1    0   
$EndComp
Wire Wire Line
	2400 2700 2400 2850
Wire Wire Line
	2000 3100 2000 2850
Wire Wire Line
	2000 2850 2400 2850
Connection ~ 2400 2850
Wire Wire Line
	2400 2850 2400 2950
Wire Wire Line
	2400 3550 2400 3750
Wire Wire Line
	2000 3750 2000 3400
$Comp
L power:GND #PWR05
U 1 1 5BF9673D
P 2200 3900
F 0 "#PWR05" H 2200 3650 50  0001 C CNN
F 1 "GND" H 2205 3727 50  0000 C CNN
F 2 "" H 2200 3900 50  0001 C CNN
F 3 "" H 2200 3900 50  0001 C CNN
	1    2200 3900
	1    0    0    -1  
$EndComp
$Comp
L power:+5V #PWR06
U 1 1 5BF96836
P 2400 2100
F 0 "#PWR06" H 2400 1950 50  0001 C CNN
F 1 "+5V" V 2400 2300 28  0000 C CNN
F 2 "" H 2400 2100 50  0000 C CNN
F 3 "" H 2400 2100 50  0000 C CNN
	1    2400 2100
	1    0    0    -1  
$EndComp
Wire Wire Line
	2400 2100 2400 2300
Wire Wire Line
	2200 3750 2200 3900
Connection ~ 2200 3750
Wire Wire Line
	2000 3750 2200 3750
Wire Wire Line
	2200 3750 2400 3750
$Comp
L power:AC #PWR08
U 1 1 5BF9C2E0
P 2900 2800
F 0 "#PWR08" H 2900 2700 50  0001 C CNN
F 1 "AC" H 2900 3075 50  0000 C CNN
F 2 "" H 2900 2800 50  0001 C CNN
F 3 "" H 2900 2800 50  0001 C CNN
	1    2900 2800
	1    0    0    -1  
$EndComp
Wire Wire Line
	2800 3550 2800 3650
$Comp
L power:GNDPWR #PWR07
U 1 1 5BFA074C
P 2800 4200
F 0 "#PWR07" H 2800 4000 50  0001 C CNN
F 1 "GNDPWR" H 2804 4046 50  0000 C CNN
F 2 "" H 2800 4150 50  0001 C CNN
F 3 "" H 2800 4150 50  0001 C CNN
	1    2800 4200
	1    0    0    -1  
$EndComp
Wire Wire Line
	2800 4200 2800 4050
Wire Wire Line
	2900 2800 2900 2950
Wire Wire Line
	2100 2500 1850 2500
$Comp
L Switch:SW_Push SW2
U 1 1 5BFA4C3D
P 3900 5550
F 0 "SW2" H 3900 5835 50  0000 C CNN
F 1 "SW_Push" H 3900 5744 50  0000 C CNN
F 2 "" H 3900 5750 50  0001 C CNN
F 3 "" H 3900 5750 50  0001 C CNN
	1    3900 5550
	1    0    0    -1  
$EndComp
Text Label 3050 5150 0    60   ~ 0
6(**)
Text Label 3050 5550 0    60   ~ 0
7
Text Label 3050 5950 0    60   ~ 0
8
Text Label 3050 6350 0    60   ~ 0
9(**)
Wire Wire Line
	3050 5150 3700 5150
Wire Wire Line
	3700 5550 3050 5550
Wire Wire Line
	3050 5950 3700 5950
Wire Wire Line
	3700 6350 3050 6350
$Comp
L Switch:SW_Push SW1
U 1 1 5BFA917E
P 3900 5150
F 0 "SW1" H 3900 5435 50  0000 C CNN
F 1 "SW_Push" H 3900 5344 50  0000 C CNN
F 2 "" H 3900 5350 50  0001 C CNN
F 3 "" H 3900 5350 50  0001 C CNN
	1    3900 5150
	1    0    0    -1  
$EndComp
$Comp
L Switch:SW_Push SW3
U 1 1 5BFA91FF
P 3900 5950
F 0 "SW3" H 3900 6235 50  0000 C CNN
F 1 "SW_Push" H 3900 6144 50  0000 C CNN
F 2 "" H 3900 6150 50  0001 C CNN
F 3 "" H 3900 6150 50  0001 C CNN
	1    3900 5950
	1    0    0    -1  
$EndComp
$Comp
L Switch:SW_Push SW4
U 1 1 5BFA927B
P 3900 6350
F 0 "SW4" H 3900 6635 50  0000 C CNN
F 1 "SW_Push" H 3900 6544 50  0000 C CNN
F 2 "" H 3900 6550 50  0001 C CNN
F 3 "" H 3900 6550 50  0001 C CNN
	1    3900 6350
	1    0    0    -1  
$EndComp
$Comp
L power:GND #PWR010
U 1 1 5BFACE04
P 4500 6550
F 0 "#PWR010" H 4500 6300 50  0001 C CNN
F 1 "GND" H 4505 6377 50  0000 C CNN
F 2 "" H 4500 6550 50  0001 C CNN
F 3 "" H 4500 6550 50  0001 C CNN
	1    4500 6550
	1    0    0    -1  
$EndComp
Wire Wire Line
	4500 6550 4500 6350
Wire Wire Line
	4100 5150 4500 5150
Wire Wire Line
	4100 5550 4500 5550
Connection ~ 4500 5550
Wire Wire Line
	4500 5550 4500 5150
Wire Wire Line
	4100 5950 4500 5950
Connection ~ 4500 5950
Wire Wire Line
	4500 5950 4500 5550
Wire Wire Line
	4100 6350 4500 6350
Connection ~ 4500 6350
Wire Wire Line
	4500 6350 4500 5950
Text Label 900  2500 0    60   ~ 0
10(**/SS)
Text Label 3100 2500 0    60   ~ 0
11(**/MOSI)
Text Label 5350 2500 0    60   ~ 0
12(MISO)
Wire Wire Line
	900  2500 1550 2500
Wire Wire Line
	3750 2500 3100 2500
Wire Wire Line
	5350 2500 6000 2500
$Comp
L Device:Lamp LA2
U 1 1 5BFBC02D
P 5000 3850
F 0 "LA2" H 5128 3896 50  0000 L CNN
F 1 "Lamp" H 5128 3805 50  0000 L CNN
F 2 "" V 5000 3950 50  0001 C CNN
F 3 "~" V 5000 3950 50  0001 C CNN
	1    5000 3850
	1    0    0    -1  
$EndComp
$Comp
L Diode:1N4148 D2
U 1 1 5BFBC034
P 4200 3250
F 0 "D2" V 4150 2950 50  0000 L CNN
F 1 "1N4148" V 4250 2900 50  0000 L CNN
F 2 "Diode_THT:D_DO-35_SOD27_P7.62mm_Horizontal" H 4200 3075 50  0001 C CNN
F 3 "http://www.nxp.com/documents/data_sheet/1N4148_1N4448.pdf" H 4200 3250 50  0001 C CNN
	1    4200 3250
	0    1    1    0   
$EndComp
$Comp
L Transistor_BJT:2N3904 Q2
U 1 1 5BFBC03B
P 4500 2500
F 0 "Q2" H 4691 2546 50  0000 L CNN
F 1 "2N3904" H 4691 2455 50  0000 L CNN
F 2 "Package_TO_SOT_THT:TO-92_Inline" H 4700 2425 50  0001 L CIN
F 3 "https://www.fairchildsemi.com/datasheets/2N/2N3904.pdf" H 4500 2500 50  0001 L CNN
	1    4500 2500
	1    0    0    -1  
$EndComp
$Comp
L Relay:FINDER-40.31 K2
U 1 1 5BFBC042
P 4800 3250
F 0 "K2" H 5230 3296 50  0000 L CNN
F 1 "FINDER-40.31" H 5230 3205 50  0000 L CNN
F 2 "Relay_THT:Relay_SPDT_Finder_40.31" H 5940 3210 50  0001 C CNN
F 3 "http://gfinder.findernet.com/assets/Series/353/S40EN.pdf" H 4800 3250 50  0001 C CNN
	1    4800 3250
	1    0    0    -1  
$EndComp
$Comp
L Device:R R2
U 1 1 5BFBC049
P 3900 2500
F 0 "R2" V 3693 2500 50  0000 C CNN
F 1 "470" V 3784 2500 50  0000 C CNN
F 2 "" V 3830 2500 50  0001 C CNN
F 3 "~" H 3900 2500 50  0001 C CNN
	1    3900 2500
	0    1    1    0   
$EndComp
Wire Wire Line
	4600 2700 4600 2850
Wire Wire Line
	4200 3100 4200 2850
Wire Wire Line
	4200 2850 4600 2850
Connection ~ 4600 2850
Wire Wire Line
	4600 2850 4600 2950
Wire Wire Line
	4600 3550 4600 3750
Wire Wire Line
	4200 3750 4200 3400
$Comp
L power:GND #PWR09
U 1 1 5BFBC057
P 4400 3900
F 0 "#PWR09" H 4400 3650 50  0001 C CNN
F 1 "GND" H 4405 3727 50  0000 C CNN
F 2 "" H 4400 3900 50  0001 C CNN
F 3 "" H 4400 3900 50  0001 C CNN
	1    4400 3900
	1    0    0    -1  
$EndComp
$Comp
L power:+5V #PWR011
U 1 1 5BFBC05D
P 4600 2100
F 0 "#PWR011" H 4600 1950 50  0001 C CNN
F 1 "+5V" V 4600 2300 28  0000 C CNN
F 2 "" H 4600 2100 50  0000 C CNN
F 3 "" H 4600 2100 50  0000 C CNN
	1    4600 2100
	1    0    0    -1  
$EndComp
Wire Wire Line
	4600 2100 4600 2300
Wire Wire Line
	4400 3750 4400 3900
Connection ~ 4400 3750
Wire Wire Line
	4200 3750 4400 3750
Wire Wire Line
	4400 3750 4600 3750
$Comp
L power:AC #PWR013
U 1 1 5BFBC068
P 5100 2800
F 0 "#PWR013" H 5100 2700 50  0001 C CNN
F 1 "AC" H 5100 3075 50  0000 C CNN
F 2 "" H 5100 2800 50  0001 C CNN
F 3 "" H 5100 2800 50  0001 C CNN
	1    5100 2800
	1    0    0    -1  
$EndComp
Wire Wire Line
	5000 3550 5000 3650
$Comp
L power:GNDPWR #PWR012
U 1 1 5BFBC06F
P 5000 4200
F 0 "#PWR012" H 5000 4000 50  0001 C CNN
F 1 "GNDPWR" H 5004 4046 50  0000 C CNN
F 2 "" H 5000 4150 50  0001 C CNN
F 3 "" H 5000 4150 50  0001 C CNN
	1    5000 4200
	1    0    0    -1  
$EndComp
Wire Wire Line
	5000 4200 5000 4050
Wire Wire Line
	5100 2800 5100 2950
Wire Wire Line
	4300 2500 4050 2500
$Comp
L Device:Lamp LA3
U 1 1 5BFBE092
P 7250 3850
F 0 "LA3" H 7378 3896 50  0000 L CNN
F 1 "Lamp" H 7378 3805 50  0000 L CNN
F 2 "" V 7250 3950 50  0001 C CNN
F 3 "~" V 7250 3950 50  0001 C CNN
	1    7250 3850
	1    0    0    -1  
$EndComp
$Comp
L Diode:1N4148 D3
U 1 1 5BFBE099
P 6450 3250
F 0 "D3" V 6400 2950 50  0000 L CNN
F 1 "1N4148" V 6500 2900 50  0000 L CNN
F 2 "Diode_THT:D_DO-35_SOD27_P7.62mm_Horizontal" H 6450 3075 50  0001 C CNN
F 3 "http://www.nxp.com/documents/data_sheet/1N4148_1N4448.pdf" H 6450 3250 50  0001 C CNN
	1    6450 3250
	0    1    1    0   
$EndComp
$Comp
L Transistor_BJT:2N3904 Q3
U 1 1 5BFBE0A0
P 6750 2500
F 0 "Q3" H 6941 2546 50  0000 L CNN
F 1 "2N3904" H 6941 2455 50  0000 L CNN
F 2 "Package_TO_SOT_THT:TO-92_Inline" H 6950 2425 50  0001 L CIN
F 3 "https://www.fairchildsemi.com/datasheets/2N/2N3904.pdf" H 6750 2500 50  0001 L CNN
	1    6750 2500
	1    0    0    -1  
$EndComp
$Comp
L Relay:FINDER-40.31 K3
U 1 1 5BFBE0A7
P 7050 3250
F 0 "K3" H 7480 3296 50  0000 L CNN
F 1 "FINDER-40.31" H 7480 3205 50  0000 L CNN
F 2 "Relay_THT:Relay_SPDT_Finder_40.31" H 8190 3210 50  0001 C CNN
F 3 "http://gfinder.findernet.com/assets/Series/353/S40EN.pdf" H 7050 3250 50  0001 C CNN
	1    7050 3250
	1    0    0    -1  
$EndComp
$Comp
L Device:R R3
U 1 1 5BFBE0AE
P 6150 2500
F 0 "R3" V 5943 2500 50  0000 C CNN
F 1 "470" V 6034 2500 50  0000 C CNN
F 2 "" V 6080 2500 50  0001 C CNN
F 3 "~" H 6150 2500 50  0001 C CNN
	1    6150 2500
	0    1    1    0   
$EndComp
Wire Wire Line
	6850 2700 6850 2850
Wire Wire Line
	6450 3100 6450 2850
Wire Wire Line
	6450 2850 6850 2850
Connection ~ 6850 2850
Wire Wire Line
	6850 2850 6850 2950
Wire Wire Line
	6850 3550 6850 3750
Wire Wire Line
	6450 3750 6450 3400
$Comp
L power:GND #PWR014
U 1 1 5BFBE0BC
P 6650 3900
F 0 "#PWR014" H 6650 3650 50  0001 C CNN
F 1 "GND" H 6655 3727 50  0000 C CNN
F 2 "" H 6650 3900 50  0001 C CNN
F 3 "" H 6650 3900 50  0001 C CNN
	1    6650 3900
	1    0    0    -1  
$EndComp
$Comp
L power:+5V #PWR015
U 1 1 5BFBE0C2
P 6850 2100
F 0 "#PWR015" H 6850 1950 50  0001 C CNN
F 1 "+5V" V 6850 2300 28  0000 C CNN
F 2 "" H 6850 2100 50  0000 C CNN
F 3 "" H 6850 2100 50  0000 C CNN
	1    6850 2100
	1    0    0    -1  
$EndComp
Wire Wire Line
	6850 2100 6850 2300
Wire Wire Line
	6650 3750 6650 3900
Connection ~ 6650 3750
Wire Wire Line
	6450 3750 6650 3750
Wire Wire Line
	6650 3750 6850 3750
$Comp
L power:AC #PWR017
U 1 1 5BFBE0CD
P 7350 2800
F 0 "#PWR017" H 7350 2700 50  0001 C CNN
F 1 "AC" H 7350 3075 50  0000 C CNN
F 2 "" H 7350 2800 50  0001 C CNN
F 3 "" H 7350 2800 50  0001 C CNN
	1    7350 2800
	1    0    0    -1  
$EndComp
Wire Wire Line
	7250 3550 7250 3650
$Comp
L power:GNDPWR #PWR016
U 1 1 5BFBE0D4
P 7250 4200
F 0 "#PWR016" H 7250 4000 50  0001 C CNN
F 1 "GNDPWR" H 7254 4046 50  0000 C CNN
F 2 "" H 7250 4150 50  0001 C CNN
F 3 "" H 7250 4150 50  0001 C CNN
	1    7250 4200
	1    0    0    -1  
$EndComp
Wire Wire Line
	7250 4200 7250 4050
Wire Wire Line
	7350 2800 7350 2950
Wire Wire Line
	6550 2500 6300 2500
$EndSCHEMATC
